%YAML 1.1
%TAG !u! tag:unity3d.com,2011:
--- !u!114 &-4864972849722274624
MonoBehaviour:
  m_ObjectHideFlags: 3
  m_CorrespondingSourceObject: {fileID: 0}
  m_PrefabInstance: {fileID: 0}
  m_PrefabAsset: {fileID: 0}
  m_GameObject: {fileID: 0}
  m_Enabled: 1
  m_EditorHideFlags: 0
  m_Script: {fileID: 11500000, guid: 24f077503be6ae942a1e1245dbd53ea9, type: 3}
  m_Name: Bloom
  m_EditorClassIdentifier: 
  active: 1
  quality:
    m_OverrideState: 1
    m_Value: 1
  threshold:
    m_OverrideState: 1
    m_Value: 0
  intensity:
    m_OverrideState: 1
    m_Value: 0.229
  scatter:
    m_OverrideState: 1
    m_Value: 0.428
  tint:
    m_OverrideState: 1
    m_Value: {r: 1, g: 1, b: 1, a: 1}
  dirtTexture:
    m_OverrideState: 1
    m_Value: {fileID: 0}
  dirtIntensity:
    m_OverrideState: 1
    m_Value: 0
  anamorphic:
    m_OverrideState: 0
    m_Value: 1
  m_Resolution:
    m_OverrideState: 1
    m_Value: 2
  m_HighQualityPrefiltering:
    m_OverrideState: 1
    m_Value: 0
  m_HighQualityFiltering:
    m_OverrideState: 1
    m_Value: 1
--- !u!114 &-4750888310340684748
MonoBehaviour:
  m_ObjectHideFlags: 3
  m_CorrespondingSourceObject: {fileID: 0}
  m_PrefabInstance: {fileID: 0}
  m_PrefabAsset: {fileID: 0}
  m_GameObject: {fileID: 0}
  m_Enabled: 1
  m_EditorHideFlags: 0
  m_Script: {fileID: 11500000, guid: aaa3b8214f75b354e9ba2caadd022259, type: 3}
  m_Name: DepthOfField
  m_EditorClassIdentifier: 
  active: 1
  quality:
    m_OverrideState: 1
    m_Value: 1
  focusMode:
    m_OverrideState: 1
    m_Value: 1
  focusDistance:
    m_OverrideState: 0
    m_Value: 10
  focusDistanceMode:
    m_OverrideState: 1
    m_Value: 1
  nearFocusStart:
    m_OverrideState: 0
    m_Value: 0
  nearFocusEnd:
    m_OverrideState: 0
    m_Value: 4
  farFocusStart:
    m_OverrideState: 0
    m_Value: 10
  farFocusEnd:
    m_OverrideState: 0
    m_Value: 20
  m_NearSampleCount:
    m_OverrideState: 1
    m_Value: 5
  m_NearMaxBlur:
    m_OverrideState: 1
    m_Value: 4
  m_FarSampleCount:
    m_OverrideState: 1
    m_Value: 7
  m_FarMaxBlur:
    m_OverrideState: 1
    m_Value: 8
  m_Resolution:
    m_OverrideState: 1
    m_Value: 2
  m_HighQualityFiltering:
    m_OverrideState: 1
    m_Value: 1
  m_PhysicallyBased:
    m_OverrideState: 1
    m_Value: 0
--- !u!114 &-2172816826655632848
MonoBehaviour:
  m_ObjectHideFlags: 3
  m_CorrespondingSourceObject: {fileID: 0}
  m_PrefabInstance: {fileID: 0}
  m_PrefabAsset: {fileID: 0}
  m_GameObject: {fileID: 0}
  m_Enabled: 1
  m_EditorHideFlags: 0
  m_Script: {fileID: 11500000, guid: 6b24b200358312b4fa1004e2431c2f1f, type: 3}
  m_Name: ShadowsMidtonesHighlights
  m_EditorClassIdentifier: 
  active: 1
  shadows:
    m_OverrideState: 1
    m_Value: {x: 1, y: 0.96458113, z: 0.9885478, w: 0}
  midtones:
    m_OverrideState: 1
    m_Value: {x: 0.9645815, y: 1, z: 0.9760326, w: 0}
  highlights:
    m_OverrideState: 1
    m_Value: {x: 1, y: 1, z: 1, w: 0}
  shadowsStart:
    m_OverrideState: 1
    m_Value: 0
  shadowsEnd:
    m_OverrideState: 1
    m_Value: 0.49
  highlightsStart:
    m_OverrideState: 1
    m_Value: 0.1
  highlightsEnd:
    m_OverrideState: 1
    m_Value: 0.94
--- !u!114 &-716050361536078733
MonoBehaviour:
  m_ObjectHideFlags: 3
  m_CorrespondingSourceObject: {fileID: 0}
  m_PrefabInstance: {fileID: 0}
  m_PrefabAsset: {fileID: 0}
  m_GameObject: {fileID: 0}
  m_Enabled: 1
  m_EditorHideFlags: 0
  m_Script: {fileID: 11500000, guid: 2c1be1b6c95cd2e41b27903b9270817f, type: 3}
  m_Name: Vignette
  m_EditorClassIdentifier: 
  active: 1
  mode:
    m_OverrideState: 0
    m_Value: 0
  color:
    m_OverrideState: 1
    m_Value: {r: 0, g: 0, b: 0, a: 1}
  center:
    m_OverrideState: 0
    m_Value: {x: 0.5, y: 0.5}
  intensity:
    m_OverrideState: 1
    m_Value: 0.344
  smoothness:
    m_OverrideState: 1
    m_Value: 0.457
  roundness:
    m_OverrideState: 1
    m_Value: 1
  rounded:
    m_OverrideState: 0
    m_Value: 0
  mask:
    m_OverrideState: 0
    m_Value: {fileID: 0}
  opacity:
    m_OverrideState: 0
    m_Value: 1
--- !u!114 &11400000
MonoBehaviour:
  m_ObjectHideFlags: 0
  m_CorrespondingSourceObject: {fileID: 0}
  m_PrefabInstance: {fileID: 0}
  m_PrefabAsset: {fileID: 0}
  m_GameObject: {fileID: 0}
  m_Enabled: 1
  m_EditorHideFlags: 0
  m_Script: {fileID: 11500000, guid: d7fd9488000d3734a9e00ee676215985, type: 3}
  m_Name: Global Volume Profile
  m_EditorClassIdentifier: 
  components:
  - {fileID: -716050361536078733}
  - {fileID: 4522237257187275168}
  - {fileID: 5195961887512665517}
  - {fileID: -2172816826655632848}
  - {fileID: -4864972849722274624}
  - {fileID: -4750888310340684748}
--- !u!114 &4522237257187275168
MonoBehaviour:
  m_ObjectHideFlags: 3
  m_CorrespondingSourceObject: {fileID: 0}
  m_PrefabInstance: {fileID: 0}
  m_PrefabAsset: {fileID: 0}
  m_GameObject: {fileID: 0}
  m_Enabled: 1
  m_EditorHideFlags: 0
  m_Script: {fileID: 11500000, guid: f086a068d4c5889438831b3ae9afc11c, type: 3}
  m_Name: Tonemapping
  m_EditorClassIdentifier: 
  active: 1
  mode:
    m_OverrideState: 1
    m_Value: 2
  toeStrength:
    m_OverrideState: 0
    m_Value: 0
  toeLength:
    m_OverrideState: 0
    m_Value: 0.5
  shoulderStrength:
    m_OverrideState: 0
    m_Value: 0
  shoulderLength:
    m_OverrideState: 0
    m_Value: 0.5
  shoulderAngle:
    m_OverrideState: 0
    m_Value: 0
  gamma:
    m_OverrideState: 0
    m_Value: 1
  lutTexture:
    m_OverrideState: 0
    m_Value: {fileID: 0}
  lutContribution:
    m_OverrideState: 0
    m_Value: 1
--- !u!114 &5195961887512665517
MonoBehaviour:
  m_ObjectHideFlags: 3
  m_CorrespondingSourceObject: {fileID: 0}
  m_PrefabInstance: {fileID: 0}
  m_PrefabAsset: {fileID: 0}
  m_GameObject: {fileID: 0}
  m_Enabled: 1
  m_EditorHideFlags: 0
  m_Script: {fileID: 11500000, guid: 4b8bcdf71d7fafa419fca1ed162f5fc9, type: 3}
  m_Name: ColorAdjustments
  m_EditorClassIdentifier: 
  active: 1
  postExposure:
    m_OverrideState: 1
    m_Value: 2
  contrast:
    m_OverrideState: 1
    m_Value: -9
  colorFilter:
    m_OverrideState: 0
    m_Value: {r: 1, g: 1, b: 1, a: 1}
  hueShift:
    m_OverrideState: 0
    m_Value: 0
  saturation:
    m_OverrideState: 1
    m_Value: 12
